Filogenia vs. ambiente térmico en el sesgo de uso de codones de pingüinos
…
trna_counts <- trna_df %>%
dplyr::count(species, aa, codon, name = "tRNA_copies")

trna_counts
}

# Se aplica la función a todas las especies

trna_counts_all <- species_info %>%
select(species_id, trna_file) %>%
pmap_dfr(~ read_trna_counts(..2, ..1))

trna_counts_all

# A tibble: 188 × 4
   species aa    codon tRNA_copies
   <chr>   <chr> <chr>       <int>
 1 Afor    A     GCA             9
 2 Afor    A     GCG             2
 3 Afor    A     GCT             7
 4 Afor    C     TGC             9
 5 Afor    D     GAC             6
 6 Afor    E     GAA             5
 7 Afor    E     GAG             5
 8 Afor    F     TTC             3
 9 Afor    G     GGA             4
10 Afor    G     GGC             7
# ℹ 178 more rows
…
